...
----------------------------------------------------------------------
Ran 3 tests in 0.001s

OK
Name             Stmts   Miss Branch BrPart  Cover   Missing
------------------------------------------------------------
Netflix.py          42      3      8      2    90%   24-25, 86, 23->24, 85->86
TestNetflix.py      23      0      0      0   100%
------------------------------------------------------------
TOTAL               65      3      8      2    93%
